<?xml version="1.0" encoding="utf-8"?>
<!-- Generator: Adobe Illustrator 22.0.1, SVG Export Plug-In . SVG Version: 6.00 Build 0)  -->
<svg version="1.1" xmlns="http://www.w3.org/2000/svg" xmlns:xlink="http://www.w3.org/1999/xlink" x="0px" y="0px"
	 viewBox="0 0 56.1 61.8" style="enable-background:new 0 0 56.1 61.8;" xml:space="preserve">
<style type="text/css">
	.st0{display:none;}
	.st1{display:inline;}
	.st2{fill:#FFFFFF;}
	.st3{fill:none;stroke:#58595B;stroke-miterlimit:10;}
	.st4{fill:none;stroke:#58595B;stroke-width:0.6036;stroke-miterlimit:10;}
</style>
<g id="Layer_2">
</g>
<g id="Layer_1">
</g>
<g id="Layer_8">
</g>
<g id="Layer_7">
</g>
<g id="Layer_3_copy" class="st0">
</g>
<g id="Layer_6">
</g>
<g id="Layer_4">
	<g>
		<path class="st2" d="M28,61.8c-1.7,0-3.4,0-5.1,0c-1.3,0-2.6,0.1-3.4-1.2c-0.3-0.4-0.7-0.3-1,0c-0.9,1-2.1,1.2-3.4,1.2
			c-3.7-0.1-7.4-0.1-11.2,0c-1,0-1.8-0.4-2.6-0.9c-1-0.6-1-1.7-1.3-2.6C-0.3,57,0.2,51.5,0.6,50c0.4-1.6,3-3.8,4.8-3.8
			c2.9-0.1,5.8-0.1,8.7,0c2,0.1,3.5,1.2,4.4,2.9c0.3,0.6,0.7,0.6,1,0.1c1.2-2.3,3.1-3.1,5.6-3.1c2.4,0,4.9,0,7.3,0
			c0.8,0,1.8,0.1,2.4,0.5c0.9,0.5,1.5,1.4,2.2,2.2c0.1,0.1,0,0.5,0,0.7c0,0.1,0.1,0.3,0.2,0.4c0.1-0.1,0.2-0.2,0.3-0.3
			c0.3-0.8,0.9-1.5,1.5-2.1c1.3-1.2,2.7-1.6,4.5-1.5c2.3,0.1,4.7,0,7,0c3.1,0,5.4,2.5,5.4,5.4c0,2.3,0,4.5,0,6.8
			c0,2.3-1.1,3.3-3.5,3.4c-4,0-7.9-0.1-11.9,0c-1.4,0-2.4-0.7-3.5-1.4c-0.9,1-2,1.4-3.3,1.4C31.9,61.7,30,61.8,28,61.8z"/>
		<path class="st2" d="M3,18.6c0-1.8,0-3.6,0-5.3c0-0.8,0.1-1.4,1-1.6c0.2,0,0.4-0.3,0.6-0.4c1-0.2,1.9-0.4,2.9-0.6
			c0.4,0.9,0.8,1.8,0.9,2.8c0.1,0.7,0.7,1.4,0.5,2.2c0,0.1,0.2,0.2,0.2,0.3c0.1-0.1,0.2-0.1,0.2-0.2c0.2-0.9,0.4-1.8,0.5-2.7
			c0-0.1-0.1-0.3-0.1-0.4c-0.3-0.8,0-1.4,0.6-1.6c0.7-0.2,1.5,0.3,1.5,1.1c0.1,1.2,0,2.4,0,3.6c0,0.2,0.2,0.4,0.2,0.6
			c0.1-0.2,0.2-0.4,0.2-0.6c0.3-1.4,1.1-2.7,1-4.2c-0.1-0.7,1-1.3,1.6-0.9c0.8,0.4,1.9,0.4,2.5,1c1,1,2.4,0.9,3.6,1.3
			c0.9,0.3,2-0.5,3-0.7c1.4-0.3,2.8-0.8,4.3-0.7c0.7,0.1,1.2,0.3,1.4,1c0.2,0.6,0.8,1,0.1,1.8c-0.7,0.9-1.2,1.3-2.2,1.7
			c-1.6,0.6-3.3,0.7-4.8,1.3c-0.5,0.2-1.1-0.1-1.7,0c-1.2,0.2-2.3-0.4-3.4-0.6c-0.3,0-0.5-0.2-0.8-0.4c-0.1,0.4-0.3,0.7-0.3,1.1
			c0,2-0.1,4.1,0,6.1c0.1,1.4-0.4,2.6-0.5,3.9c-0.1,0.9-1.6,2-2.6,2c-1.4,0-2.8-0.1-4.1,0c-1.7,0.2-2.7-0.6-3.5-1.9
			c-0.4-0.7-0.8-1.2-1.6-1.6c-1-0.5-1.4-1.3-1.4-2.5C3.1,22,3,20.3,3,18.6z"/>
		<path class="st2" d="M36.1,26.8c-4.5,0-8.9,0-13.4,0c-0.5,0-1,0-1.5,0c-0.7,0-1-0.4-1.2-0.9c-0.1-0.5-0.1-1.1,0.5-1.2
			c1-0.3,1.1-0.9,1-1.8c-0.1-0.7,0-1.5,0-2.2c0-1.1,0.7-1.8,1.9-1.7c0.2,0,0.5,0.4,0.5,0.6c0,1.3,0.1,2.6,0,3.9c0,0.8,0.3,0.9,1,0.9
			c6.2,0,12.5,0,18.7,0c1.7,0,3.4-0.1,5-0.2c0-1.6,0.1-3.2,0.1-4.8c0-4.1,0-8.1,0-12.2c0-1.3,0-1.3-1.3-1.3c-6.6,0-13.3,0-19.9,0
			C26.4,5.9,25.2,6,24,6c0,1.1,0,2.3,0,3.4c0,1-0.3,1.5-1.3,1.8c-0.6,0.2-1.1-0.1-1.1-0.7c0-1,0-1.9,0-2.9c0-0.9,0-1.6-1-2
			c-0.3-0.1-0.4-0.8-0.5-1.2c-0.1-0.5,0-0.9,0.7-0.9C22,3.3,23.2,3,24.5,2.9c1.2-0.1,2.4,0,3.6,0c1.3,0,2.6,0,3.9,0
			c0.4,0,0.8,0,1.2,0c0.6,0,1.3,0.2,1.6-0.1c0.3-0.2,0.2-1,0.3-1.5c0.1-0.9,0.6-1.4,1.3-1.3c0.7,0.1,1.1,0.5,1.1,1.3
			c0,0.3,0,0.7,0,1c0,0.5,0.2,0.7,0.7,0.7c2.8,0,5.7,0.1,8.5-0.1c1.9-0.1,3.6,0.6,5.4,0.5c0.2,0,0.5,0.2,0.5,0.4
			c0,0.6,0.3,1.4-0.4,1.7c-1,0.4-1,1.1-1,2c0,5.2,0,10.4,0,15.6c0,0.6-0.1,1.2,0.8,1.4c0.5,0.1,0.8,0.8,0.6,1.4
			c-0.2,0.7-0.7,0.9-1.4,0.9C46.1,26.7,41.1,26.8,36.1,26.8z"/>
		<path class="st2" d="M14.7,37.2c0.4,1.6-0.5,3.2-1,4.7c-0.5,1.4-1.8,2.4-3.3,2.8c-1.2,0.4-2.6,0-3.4-1.1c-0.6-0.9-1.7-1.6-1.6-3
			c-0.9-0.7-0.2-2-1-2.8c-0.5-4,3.1-6.6,6.9-5.5c1.1,0.3,1.9,1,2.7,1.7c0.5,0.5,0.8,1,0.7,1.7C14.7,36.2,14.7,36.6,14.7,37.2z"/>
		<path class="st2" d="M33.2,37.6c0.2,2.4-0.7,4.5-2.7,6.2c-1.2,1-2.2,1.2-3.8,0.5c-0.9-0.4-1.4-0.8-1.8-1.7
			c-0.7-1.4-1.6-2.8-1.5-4.5c0.1-0.8-1-1.7,0-2.5c0-2.7,2.2-3.1,4-3.5c2.3-0.5,4.1,0.6,5.5,2.4c0.2,0.2,0.2,0.6,0.2,0.9
			C33.2,36.1,33.2,36.8,33.2,37.6z"/>
		<path class="st2" d="M51.3,37.5c-0.4,2.3-0.9,4.6-2.8,6.4c-1.1,1.1-2.3,1-3.5,0.7c-0.8-0.2-1.7-0.8-2.1-1.7
			c-0.5-0.9-1.2-1.8-1.4-2.8c-0.2-1-0.3-2-0.5-2.9c-0.3-1.9,1.4-4.4,3.5-4.9c2.3-0.5,5.2,0.1,6.3,2.7C51.3,35.8,50.9,36.6,51.3,37.5
			z"/>
		<path class="st2" d="M41.4,15.3c0,2.1,0,4.2,0,6.3c0,0.7-0.3,0.8-0.8,0.8c-0.8,0-1.6,0-2.4,0c-0.7-0.1-1.1-0.4-1.1-1.2
			c0-4.2,0-8.4,0-12.6c0-0.8,0.5-1.2,1.3-1.3c0.2,0,0.5,0,0.7,0c2.3,0,2.3,0,2.3,2.2C41.5,11.5,41.4,13.4,41.4,15.3z"/>
		<path class="st2" d="M6.9,5C6.6,2.8,8.9,0.7,11,1c1.5,0.2,3.1,1.7,3.2,3.2c0.1,2.1-0.4,4-2,5.5c-0.9,0.9-2.2,0.9-3.1,0.1
			C7.6,8.4,7.2,6.7,6.9,5z"/>
		<path class="st2" d="M43.4,16.1c0-1.9,0-3.7,0-5.6c0-0.7,0.3-0.8,0.8-0.8c0.1,0,0.2,0,0.2,0c2.4,0,2.9-0.4,2.8,2.7
			c-0.1,2.8,0,5.6,0,8.5c0,1-0.4,1.4-1.3,1.5c-2.5,0.2-2.5,0.2-2.5-2.4C43.4,18.6,43.4,17.4,43.4,16.1z"/>
		<path class="st2" d="M35.6,18.5c0,1-0.1,1.9,0,2.9c0.1,1-0.3,1.1-1.1,1c-0.6-0.1-1.3,0-1.9,0c-1,0-1.3-0.4-1.4-1.5
			c0-1,0-2.1,0-3.1c0-1,0.1-2,0.2-3.1c1.3,0,2.6-0.1,3.8,0c0.1,0,0.3,0.5,0.4,0.7C35.6,16.4,35.6,17.4,35.6,18.5z"/>
	</g>
</g>
</svg>
