<?xml version="1.0" encoding="utf-8"?>
<!-- Generator: Adobe Illustrator 22.0.1, SVG Export Plug-In . SVG Version: 6.00 Build 0)  -->
<svg version="1.1" xmlns="http://www.w3.org/2000/svg" xmlns:xlink="http://www.w3.org/1999/xlink" x="0px" y="0px"
	 viewBox="0 0 65.1 54.6" style="enable-background:new 0 0 65.1 54.6;" xml:space="preserve">
<style type="text/css">
	.st0{display:none;}
	.st1{display:inline;}
	.st2{fill:#FFFFFF;}
	.st3{fill:none;stroke:#58595B;stroke-miterlimit:10;}
	.st4{fill:none;stroke:#58595B;stroke-width:0.6036;stroke-miterlimit:10;}
</style>
<g id="Layer_2">
</g>
<g id="Layer_1">
</g>
<g id="Layer_8">
</g>
<g id="Layer_7">
</g>
<g id="Layer_3_copy" class="st0">
</g>
<g id="Layer_6">
</g>
<g id="Layer_4">
	<g>
		<path class="st2" d="M10.7,54.6c-0.8-0.3-1-0.9-1-1.7c0-8.2,0-16.3,0-24.5c0-0.5,0.2-0.8,0.6-1.2c3.6-2.8,7.1-5.6,10.7-8.4
			c3.8-3,7.6-6,11.5-9c0.1-0.1,0.1-0.1,0.2-0.2c1.4,1.1,2.8,2.2,4.2,3.3c3.6,2.8,7.2,5.7,10.8,8.5c2.5,2,5.1,4,7.6,6
			c0.2,0.2,0.3,0.5,0.3,0.8c0,6,0,12.1,0,18.1c0,2.2,0,4.3,0,6.5c0,0.8-0.2,1.4-1,1.7c-4.9,0-9.8,0-14.6,0c0-0.3,0-0.5,0-0.8
			c0-3.3,0-6.7,0-10c0-1.2-0.5-1.7-1.7-1.7c-0.1,0-0.2,0-0.3,0c-3.5,0-7,0-10.4,0c-1.6,0-2,0.4-2,2c0,2,0,3.9,0,5.9
			c0,1.5,0,3.1,0,4.6C20.5,54.6,15.6,54.6,10.7,54.6z"/>
		<path class="st2" d="M0,25.3c0.8-0.6,1.6-1.1,2.3-1.7c5.4-4.2,10.7-8.4,16.1-12.6C23,7.4,27.5,3.8,32,0.3c0.4-0.4,0.8-0.3,1.2,0
			c5.3,4.2,10.6,8.3,15.9,12.5c4.9,3.8,9.7,7.6,14.6,11.5c0.5,0.4,1,0.7,1.4,1.1c-1.2,1.1-2.3,2.3-3.5,3.4
			C52,21.2,42.3,13.6,32.6,5.9c-9.7,7.6-19.4,15.2-29.2,22.9c-0.6-0.6-1.1-1.2-1.7-1.7C1.1,26.6,0.6,26,0,25.5C0,25.4,0,25.3,0,25.3
			z"/>
		<path class="st2" d="M9.8,3.6c2.7,0,5.4,0,8.1,0c0,1.4,0,2.8,0,4.2c0,0.1-0.2,0.3-0.3,0.4c-2.5,2-5.1,4-7.6,6.1c0,0-0.1,0-0.2,0.1
			C9.8,10.8,9.8,7.2,9.8,3.6z"/>
	</g>
</g>
</svg>
